%YAML 1.1
%TAG !u! tag:unity3d.com,2011:
--- !u!114 &11400000
MonoBehaviour:
  m_ObjectHideFlags: 0
  m_CorrespondingSourceObject: {fileID: 0}
  m_PrefabInternal: {fileID: 0}
  m_GameObject: {fileID: 0}
  m_Enabled: 1
  m_EditorHideFlags: 0
  m_Script: {fileID: 11500000, guid: dd57cbd0f1c556344822b138d5e2372b, type: 3}
  m_Name: lac operator unbound
  m_EditorClassIdentifier: 
  name: lac operator
  layerMask:
    serializedVersion: 2
    m_Bits: 512
  model: {fileID: 1200186754292932, guid: 8365e36b67d22e84b98d8d220f3cdb3d, type: 2}
  tobiiModel: {fileID: 1175115606113722, guid: b60084d15d3635847bc1c9098b297d92, type: 2}
  ligandMols: []
  bindActions: []
  spawnActions: []
  radius: 0.5
  contrainTransform: 0
  cooldownTime: 0
  maxNumber: 1
  pool: 1
  material: {fileID: 0}
