%YAML 1.1
%TAG !u! tag:unity3d.com,2011:
--- !u!114 &11400000
MonoBehaviour:
  m_ObjectHideFlags: 0
  m_CorrespondingSourceObject: {fileID: 0}
  m_PrefabInternal: {fileID: 0}
  m_GameObject: {fileID: 0}
  m_Enabled: 1
  m_EditorHideFlags: 0
  m_Script: {fileID: 11500000, guid: dd57cbd0f1c556344822b138d5e2372b, type: 3}
  m_Name: lacI site
  m_EditorClassIdentifier: 
  name: lacI
  layerMask:
    serializedVersion: 2
    m_Bits: 512
  model: {fileID: 1041197752816452, guid: c7aa24956f86f3b4a892fad3cbc8609f, type: 2}
  tobiiModel: {fileID: 1432752635955274, guid: 3d286f558776e4b4e98bde17b62e29e8, type: 2}
  ligandMols: []
  bindActions: []
  spawnActions: []
  radius: 0.5
  contrainTransform: 0
  cooldownTime: 0
  maxNumber: 1
  pool: 1
  material: {fileID: 0}
