%YAML 1.1
%TAG !u! tag:unity3d.com,2011:
--- !u!114 &11400000
MonoBehaviour:
  m_ObjectHideFlags: 0
  m_CorrespondingSourceObject: {fileID: 0}
  m_PrefabInternal: {fileID: 0}
  m_GameObject: {fileID: 0}
  m_Enabled: 1
  m_EditorHideFlags: 0
  m_Script: {fileID: 11500000, guid: dd57cbd0f1c556344822b138d5e2372b, type: 3}
  m_Name: CRP protein holder
  m_EditorClassIdentifier: 
  name: CAP holder
  layerMask:
    serializedVersion: 2
    m_Bits: 512
  model: {fileID: 1378913447911880, guid: 6f1c6211b448d7d45ad294c3ad195a61, type: 2}
  tobiiModel: {fileID: 1378913447911880, guid: 6f1c6211b448d7d45ad294c3ad195a61, type: 2}
  ligandMols:
  - {fileID: 11400000, guid: c8d6751018794724fb58a7ba4fb31e23, type: 2}
  bindActions:
  - {fileID: 11400000, guid: ef86c058aef9f1d4495d467781d2f33f, type: 2}
  - {fileID: 11400000, guid: 1b9498763d653c64f9ad96cf623c4008, type: 2}
  - {fileID: 11400000, guid: 13672c7bc78ad7b4bbd63078171d6463, type: 2}
  spawnActions: []
  radius: 0.25
  contrainTransform: 0
  cooldownTime: 0
  maxNumber: 10
  pool: 1
  material: {fileID: 0}
  disableRandomMotion: 1
