%YAML 1.1
%TAG !u! tag:unity3d.com,2011:
--- !u!114 &11400000
MonoBehaviour:
  m_ObjectHideFlags: 0
  m_CorrespondingSourceObject: {fileID: 0}
  m_PrefabInternal: {fileID: 0}
  m_GameObject: {fileID: 0}
  m_Enabled: 1
  m_EditorHideFlags: 0
  m_Script: {fileID: 11500000, guid: dd57cbd0f1c556344822b138d5e2372b, type: 3}
  m_Name: ribosome
  m_EditorClassIdentifier: 
  name: ribosome
  layerMask:
    serializedVersion: 2
    m_Bits: 512
  model: {fileID: 1737341717619780, guid: ef43f4c73448ef44abe9d2b4201e085c, type: 2}
  tobiiModel: {fileID: 1952463009535196, guid: ad70a78cc529e384983beba89d495902, type: 2}
  ligandMols:
  - {fileID: 11400000, guid: 42bba656d847ca94abb2ad942119d9a7, type: 2}
  - {fileID: 11400000, guid: bbc332da11521e84cb6830e60aee4663, type: 2}
  bindActions:
  - {fileID: 11400000, guid: dcc3313a6d7bad5468babc5f6e0a861d, type: 2}
  - {fileID: 11400000, guid: 0ad7af51023f81e49abcf006d05caa06, type: 2}
  spawnActions:
  - {fileID: 11400000, guid: ccb65507283fc1a4db3349bd0ea9dab6, type: 2}
  radius: 0.25
  contrainTransform: 0
  cooldownTime: 2
  maxNumber: 1
  pool: 1
