%YAML 1.1
%TAG !u! tag:unity3d.com,2011:
--- !u!114 &11400000
MonoBehaviour:
  m_ObjectHideFlags: 0
  m_CorrespondingSourceObject: {fileID: 0}
  m_PrefabInternal: {fileID: 0}
  m_GameObject: {fileID: 0}
  m_Enabled: 1
  m_EditorHideFlags: 0
  m_Script: {fileID: 11500000, guid: dd57cbd0f1c556344822b138d5e2372b, type: 3}
  m_Name: "\u03B2-galactosidase"
  m_EditorClassIdentifier: 
  name: beta-gal
  layerMask:
    serializedVersion: 2
    m_Bits: 512
  model: {fileID: 1575658754347020, guid: de3cd5dfb0730a94cb2d81ba3da68419, type: 2}
  tobiiModel: {fileID: 1604282550843718, guid: 4cebfdbc5d3ef9f418613720c92aa166, type: 2}
  ligandMols:
  - {fileID: 11400000, guid: fe06517f984090c4db8e587aa07ae7fd, type: 2}
  bindActions:
  - {fileID: 11400000, guid: ba895a8ef7ac6f5459577f1862478d49, type: 2}
  - {fileID: 11400000, guid: 5c729becead6eba41b8e72ab0f3198d2, type: 2}
  - {fileID: 11400000, guid: 4263726e7cecdcb40bc66a932f0caa8a, type: 2}
  spawnActions: []
  radius: 0.5
  contrainTransform: 0
  cooldownTime: 0
  maxNumber: 10
  pool: 1
  material: {fileID: 0}
  disableRandomMotion: 0
