%YAML 1.1
%TAG !u! tag:unity3d.com,2011:
--- !u!114 &11400000
MonoBehaviour:
  m_ObjectHideFlags: 0
  m_CorrespondingSourceObject: {fileID: 0}
  m_PrefabInternal: {fileID: 0}
  m_GameObject: {fileID: 0}
  m_Enabled: 1
  m_EditorHideFlags: 0
  m_Script: {fileID: 11500000, guid: 1b35043835a07514598322b9a2892f64, type: 3}
  m_Name: TranslationGroup I
  m_EditorClassIdentifier: 
  mRNA: {fileID: 11400000, guid: 42bba656d847ca94abb2ad942119d9a7, type: 2}
  proteins:
  - {fileID: 11400000, guid: 5e83584cc17e70246aeb2e56d64fc62d, type: 2}
